(kicad_sch
	(version 20231120)
	(generator "eeschema")
	(generator_version "8.0")
	(uuid "d9be11eb-f4b1-40ed-b837-98e9ed11b109")
	(paper "A4")
	(lib_symbols
		(symbol "Connector:Conn_01x04_Pin"
			(pin_names
				(offset 1.016) hide)
			(exclude_from_sim no)
			(in_bom yes)
			(on_board yes)
			(property "Reference" "J"
				(at 0 5.08 0)
				(effects
					(font
						(size 1.27 1.27)
					)
				)
			)
			(property "Value" "Conn_01x04_Pin"
				(at 0 -7.62 0)
				(effects
					(font
						(size 1.27 1.27)
					)
				)
			)
			(property "Footprint" ""
				(at 0 0 0)
				(effects
					(font
						(size 1.27 1.27)
					)
					(hide yes)
				)
			)
			(property "Datasheet" "~"
				(at 0 0 0)
				(effects
					(font
						(size 1.27 1.27)
					)
					(hide yes)
				)
			)
			(property "Description" "Generic connector, single row, 01x04, script generated"
				(at 0 0 0)
				(effects
					(font
						(size 1.27 1.27)
					)
					(hide yes)
				)
			)
			(property "ki_locked" ""
				(at 0 0 0)
				(effects
					(font
						(size 1.27 1.27)
					)
				)
			)
			(property "ki_keywords" "connector"
				(at 0 0 0)
				(effects
					(font
						(size 1.27 1.27)
					)
					(hide yes)
				)
			)
			(property "ki_fp_filters" "Connector*:*_1x??_*"
				(at 0 0 0)
				(effects
					(font
						(size 1.27 1.27)
					)
					(hide yes)
				)
			)
			(symbol "Conn_01x04_Pin_1_1"
				(polyline
					(pts
						(xy 1.27 -5.08) (xy 0.8636 -5.08)
					)
					(stroke
						(width 0.1524)
						(type default)
					)
					(fill
						(type none)
					)
				)
				(polyline
					(pts
						(xy 1.27 -2.54) (xy 0.8636 -2.54)
					)
					(stroke
						(width 0.1524)
						(type default)
					)
					(fill
						(type none)
					)
				)
				(polyline
					(pts
						(xy 1.27 0) (xy 0.8636 0)
					)
					(stroke
						(width 0.1524)
						(type default)
					)
					(fill
						(type none)
					)
				)
				(polyline
					(pts
						(xy 1.27 2.54) (xy 0.8636 2.54)
					)
					(stroke
						(width 0.1524)
						(type default)
					)
					(fill
						(type none)
					)
				)
				(rectangle
					(start 0.8636 -4.953)
					(end 0 -5.207)
					(stroke
						(width 0.1524)
						(type default)
					)
					(fill
						(type outline)
					)
				)
				(rectangle
					(start 0.8636 -2.413)
					(end 0 -2.667)
					(stroke
						(width 0.1524)
						(type default)
					)
					(fill
						(type outline)
					)
				)
				(rectangle
					(start 0.8636 0.127)
					(end 0 -0.127)
					(stroke
						(width 0.1524)
						(type default)
					)
					(fill
						(type outline)
					)
				)
				(rectangle
					(start 0.8636 2.667)
					(end 0 2.413)
					(stroke
						(width 0.1524)
						(type default)
					)
					(fill
						(type outline)
					)
				)
				(pin passive line
					(at 5.08 2.54 180)
					(length 3.81)
					(name "Pin_1"
						(effects
							(font
								(size 1.27 1.27)
							)
						)
					)
					(number "1"
						(effects
							(font
								(size 1.27 1.27)
							)
						)
					)
				)
				(pin passive line
					(at 5.08 0 180)
					(length 3.81)
					(name "Pin_2"
						(effects
							(font
								(size 1.27 1.27)
							)
						)
					)
					(number "2"
						(effects
							(font
								(size 1.27 1.27)
							)
						)
					)
				)
				(pin passive line
					(at 5.08 -2.54 180)
					(length 3.81)
					(name "Pin_3"
						(effects
							(font
								(size 1.27 1.27)
							)
						)
					)
					(number "3"
						(effects
							(font
								(size 1.27 1.27)
							)
						)
					)
				)
				(pin passive line
					(at 5.08 -5.08 180)
					(length 3.81)
					(name "Pin_4"
						(effects
							(font
								(size 1.27 1.27)
							)
						)
					)
					(number "4"
						(effects
							(font
								(size 1.27 1.27)
							)
						)
					)
				)
			)
		)
		(symbol "Connector:TestPoint"
			(pin_numbers hide)
			(pin_names
				(offset 0.762) hide)
			(exclude_from_sim no)
			(in_bom yes)
			(on_board yes)
			(property "Reference" "TP"
				(at 0 6.858 0)
				(effects
					(font
						(size 1.27 1.27)
					)
				)
			)
			(property "Value" "TestPoint"
				(at 0 5.08 0)
				(effects
					(font
						(size 1.27 1.27)
					)
				)
			)
			(property "Footprint" ""
				(at 5.08 0 0)
				(effects
					(font
						(size 1.27 1.27)
					)
					(hide yes)
				)
			)
			(property "Datasheet" "~"
				(at 5.08 0 0)
				(effects
					(font
						(size 1.27 1.27)
					)
					(hide yes)
				)
			)
			(property "Description" "test point"
				(at 0 0 0)
				(effects
					(font
						(size 1.27 1.27)
					)
					(hide yes)
				)
			)
			(property "ki_keywords" "test point tp"
				(at 0 0 0)
				(effects
					(font
						(size 1.27 1.27)
					)
					(hide yes)
				)
			)
			(property "ki_fp_filters" "Pin* Test*"
				(at 0 0 0)
				(effects
					(font
						(size 1.27 1.27)
					)
					(hide yes)
				)
			)
			(symbol "TestPoint_0_1"
				(circle
					(center 0 3.302)
					(radius 0.762)
					(stroke
						(width 0)
						(type default)
					)
					(fill
						(type none)
					)
				)
			)
			(symbol "TestPoint_1_1"
				(pin passive line
					(at 0 0 90)
					(length 2.54)
					(name "1"
						(effects
							(font
								(size 1.27 1.27)
							)
						)
					)
					(number "1"
						(effects
							(font
								(size 1.27 1.27)
							)
						)
					)
				)
			)
		)
		(symbol "fab:Power_PWR_FLAG"
			(power)
			(pin_numbers hide)
			(pin_names
				(offset 0) hide)
			(exclude_from_sim no)
			(in_bom yes)
			(on_board yes)
			(property "Reference" "#FLG"
				(at 0 1.905 0)
				(effects
					(font
						(size 1.27 1.27)
					)
					(hide yes)
				)
			)
			(property "Value" "Power_PWR_FLAG"
				(at 0 3.81 0)
				(effects
					(font
						(size 1.27 1.27)
					)
				)
			)
			(property "Footprint" ""
				(at 0 0 0)
				(effects
					(font
						(size 1.27 1.27)
					)
					(hide yes)
				)
			)
			(property "Datasheet" "~"
				(at 0 0 0)
				(effects
					(font
						(size 1.27 1.27)
					)
					(hide yes)
				)
			)
			(property "Description" "Special symbol for telling ERC where power comes from"
				(at 0 0 0)
				(effects
					(font
						(size 1.27 1.27)
					)
					(hide yes)
				)
			)
			(property "ki_keywords" "power-flag"
				(at 0 0 0)
				(effects
					(font
						(size 1.27 1.27)
					)
					(hide yes)
				)
			)
			(symbol "Power_PWR_FLAG_0_0"
				(pin power_out line
					(at 0 0 90)
					(length 0)
					(name "pwr"
						(effects
							(font
								(size 1.27 1.27)
							)
						)
					)
					(number "1"
						(effects
							(font
								(size 1.27 1.27)
							)
						)
					)
				)
			)
			(symbol "Power_PWR_FLAG_0_1"
				(polyline
					(pts
						(xy 0 0) (xy 0 1.27) (xy -1.016 1.905) (xy 0 2.54) (xy 1.016 1.905) (xy 0 1.27)
					)
					(stroke
						(width 0)
						(type default)
					)
					(fill
						(type none)
					)
				)
			)
		)
		(symbol "fab:STM32C011D6Y6TR"
			(pin_names
				(offset 0.254)
			)
			(exclude_from_sim no)
			(in_bom yes)
			(on_board yes)
			(property "Reference" "U"
				(at 48.26 10.16 0)
				(effects
					(font
						(size 1.524 1.524)
					)
				)
			)
			(property "Value" "STM32C011D6Y6TR"
				(at 48.26 7.62 0)
				(effects
					(font
						(size 1.524 1.524)
					)
				)
			)
			(property "Footprint" "WLCSP12_1P7X1P42_STM"
				(at 48.26 6.096 0)
				(effects
					(font
						(size 1.524 1.524)
					)
					(hide yes)
				)
			)
			(property "Datasheet" ""
				(at 0 0 0)
				(effects
					(font
						(size 1.524 1.524)
					)
				)
			)
			(property "Description" ""
				(at 0 0 0)
				(effects
					(font
						(size 1.27 1.27)
					)
					(hide yes)
				)
			)
			(property "ki_locked" ""
				(at 0 0 0)
				(effects
					(font
						(size 1.27 1.27)
					)
				)
			)
			(property "ki_fp_filters" "WLCSP12_1P7X1P42_STM"
				(at 0 0 0)
				(effects
					(font
						(size 1.27 1.27)
					)
					(hide yes)
				)
			)
			(symbol "STM32C011D6Y6TR_1_1"
				(polyline
					(pts
						(xy 7.62 -30.48) (xy 88.9 -30.48)
					)
					(stroke
						(width 0.127)
						(type default)
					)
					(fill
						(type none)
					)
				)
				(polyline
					(pts
						(xy 7.62 5.08) (xy 7.62 -30.48)
					)
					(stroke
						(width 0.127)
						(type default)
					)
					(fill
						(type none)
					)
				)
				(polyline
					(pts
						(xy 88.9 -30.48) (xy 88.9 5.08)
					)
					(stroke
						(width 0.127)
						(type default)
					)
					(fill
						(type none)
					)
				)
				(polyline
					(pts
						(xy 88.9 5.08) (xy 7.62 5.08)
					)
					(stroke
						(width 0.127)
						(type default)
					)
					(fill
						(type none)
					)
				)
				(pin bidirectional line
					(at 0 -15.24 0)
					(length 7.62)
					(name "PB6"
						(effects
							(font
								(size 1.4986 1.4986)
							)
						)
					)
					(number "A2"
						(effects
							(font
								(size 1.4986 1.4986)
							)
						)
					)
				)
				(pin bidirectional line
					(at 96.52 -2.54 180)
					(length 7.62)
					(name "PC15-OSCX_OUT"
						(effects
							(font
								(size 1.4986 1.4986)
							)
						)
					)
					(number "A4"
						(effects
							(font
								(size 1.4986 1.4986)
							)
						)
					)
				)
				(pin bidirectional line
					(at 0 -7.62 0)
					(length 7.62)
					(name "PA13"
						(effects
							(font
								(size 1.4986 1.4986)
							)
						)
					)
					(number "B1"
						(effects
							(font
								(size 1.4986 1.4986)
							)
						)
					)
				)
				(pin bidirectional line
					(at 96.52 0 180)
					(length 7.62)
					(name "PC14-OSCX_IN"
						(effects
							(font
								(size 1.4986 1.4986)
							)
						)
					)
					(number "B3"
						(effects
							(font
								(size 1.4986 1.4986)
							)
						)
					)
				)
				(pin bidirectional line
					(at 0 -10.16 0)
					(length 7.62)
					(name "PA14-BOOT0"
						(effects
							(font
								(size 1.4986 1.4986)
							)
						)
					)
					(number "C2"
						(effects
							(font
								(size 1.4986 1.4986)
							)
						)
					)
				)
				(pin power_in line
					(at 96.52 -12.7 180)
					(length 7.62)
					(name "VDD/VDDA"
						(effects
							(font
								(size 1.4986 1.4986)
							)
						)
					)
					(number "C4"
						(effects
							(font
								(size 1.4986 1.4986)
							)
						)
					)
				)
				(pin bidirectional line
					(at 0 -2.54 0)
					(length 7.62)
					(name "PA11PA9/PA8"
						(effects
							(font
								(size 1.4986 1.4986)
							)
						)
					)
					(number "D1"
						(effects
							(font
								(size 1.4986 1.4986)
							)
						)
					)
				)
				(pin bidirectional line
					(at 0 -17.78 0)
					(length 7.62)
					(name "PB7"
						(effects
							(font
								(size 1.4986 1.4986)
							)
						)
					)
					(number "D3"
						(effects
							(font
								(size 1.4986 1.4986)
							)
						)
					)
				)
				(pin bidirectional line
					(at 0 -5.08 0)
					(length 7.62)
					(name "PA12PA10/PA7"
						(effects
							(font
								(size 1.4986 1.4986)
							)
						)
					)
					(number "E2"
						(effects
							(font
								(size 1.4986 1.4986)
							)
						)
					)
				)
				(pin power_in line
					(at 0 -25.4 0)
					(length 7.62)
					(name "VSS/VSSA"
						(effects
							(font
								(size 1.4986 1.4986)
							)
						)
					)
					(number "E4"
						(effects
							(font
								(size 1.4986 1.4986)
							)
						)
					)
				)
				(pin bidirectional line
					(at 0 0 0)
					(length 7.62)
					(name "PA3/PA4/PA5/PA6"
						(effects
							(font
								(size 1.4986 1.4986)
							)
						)
					)
					(number "F1"
						(effects
							(font
								(size 1.4986 1.4986)
							)
						)
					)
				)
				(pin bidirectional line
					(at 96.52 -7.62 180)
					(length 7.62)
					(name "PF2-NRST/PA0/PA1/PA2"
						(effects
							(font
								(size 1.4986 1.4986)
							)
						)
					)
					(number "F3"
						(effects
							(font
								(size 1.4986 1.4986)
							)
						)
					)
				)
			)
		)
		(symbol "power:+5V"
			(power)
			(pin_numbers hide)
			(pin_names
				(offset 0) hide)
			(exclude_from_sim no)
			(in_bom yes)
			(on_board yes)
			(property "Reference" "#PWR"
				(at 0 -3.81 0)
				(effects
					(font
						(size 1.27 1.27)
					)
					(hide yes)
				)
			)
			(property "Value" "+5V"
				(at 0 3.556 0)
				(effects
					(font
						(size 1.27 1.27)
					)
				)
			)
			(property "Footprint" ""
				(at 0 0 0)
				(effects
					(font
						(size 1.27 1.27)
					)
					(hide yes)
				)
			)
			(property "Datasheet" ""
				(at 0 0 0)
				(effects
					(font
						(size 1.27 1.27)
					)
					(hide yes)
				)
			)
			(property "Description" "Power symbol creates a global label with name \"+5V\""
				(at 0 0 0)
				(effects
					(font
						(size 1.27 1.27)
					)
					(hide yes)
				)
			)
			(property "ki_keywords" "global power"
				(at 0 0 0)
				(effects
					(font
						(size 1.27 1.27)
					)
					(hide yes)
				)
			)
			(symbol "+5V_0_1"
				(polyline
					(pts
						(xy -0.762 1.27) (xy 0 2.54)
					)
					(stroke
						(width 0)
						(type default)
					)
					(fill
						(type none)
					)
				)
				(polyline
					(pts
						(xy 0 0) (xy 0 2.54)
					)
					(stroke
						(width 0)
						(type default)
					)
					(fill
						(type none)
					)
				)
				(polyline
					(pts
						(xy 0 2.54) (xy 0.762 1.27)
					)
					(stroke
						(width 0)
						(type default)
					)
					(fill
						(type none)
					)
				)
			)
			(symbol "+5V_1_1"
				(pin power_in line
					(at 0 0 90)
					(length 0)
					(name "~"
						(effects
							(font
								(size 1.27 1.27)
							)
						)
					)
					(number "1"
						(effects
							(font
								(size 1.27 1.27)
							)
						)
					)
				)
			)
		)
		(symbol "power:GND"
			(power)
			(pin_numbers hide)
			(pin_names
				(offset 0) hide)
			(exclude_from_sim no)
			(in_bom yes)
			(on_board yes)
			(property "Reference" "#PWR"
				(at 0 -6.35 0)
				(effects
					(font
						(size 1.27 1.27)
					)
					(hide yes)
				)
			)
			(property "Value" "GND"
				(at 0 -3.81 0)
				(effects
					(font
						(size 1.27 1.27)
					)
				)
			)
			(property "Footprint" ""
				(at 0 0 0)
				(effects
					(font
						(size 1.27 1.27)
					)
					(hide yes)
				)
			)
			(property "Datasheet" ""
				(at 0 0 0)
				(effects
					(font
						(size 1.27 1.27)
					)
					(hide yes)
				)
			)
			(property "Description" "Power symbol creates a global label with name \"GND\" , ground"
				(at 0 0 0)
				(effects
					(font
						(size 1.27 1.27)
					)
					(hide yes)
				)
			)
			(property "ki_keywords" "global power"
				(at 0 0 0)
				(effects
					(font
						(size 1.27 1.27)
					)
					(hide yes)
				)
			)
			(symbol "GND_0_1"
				(polyline
					(pts
						(xy 0 0) (xy 0 -1.27) (xy 1.27 -1.27) (xy 0 -2.54) (xy -1.27 -1.27) (xy 0 -1.27)
					)
					(stroke
						(width 0)
						(type default)
					)
					(fill
						(type none)
					)
				)
			)
			(symbol "GND_1_1"
				(pin power_in line
					(at 0 0 270)
					(length 0)
					(name "~"
						(effects
							(font
								(size 1.27 1.27)
							)
						)
					)
					(number "1"
						(effects
							(font
								(size 1.27 1.27)
							)
						)
					)
				)
			)
		)
		(symbol "power:VCC"
			(power)
			(pin_names
				(offset 0)
			)
			(exclude_from_sim no)
			(in_bom yes)
			(on_board yes)
			(property "Reference" "#PWR"
				(at 0 -3.81 0)
				(effects
					(font
						(size 1.27 1.27)
					)
					(hide yes)
				)
			)
			(property "Value" "VCC"
				(at 0 3.81 0)
				(effects
					(font
						(size 1.27 1.27)
					)
				)
			)
			(property "Footprint" ""
				(at 0 0 0)
				(effects
					(font
						(size 1.27 1.27)
					)
					(hide yes)
				)
			)
			(property "Datasheet" ""
				(at 0 0 0)
				(effects
					(font
						(size 1.27 1.27)
					)
					(hide yes)
				)
			)
			(property "Description" "Power symbol creates a global label with name \"VCC\""
				(at 0 0 0)
				(effects
					(font
						(size 1.27 1.27)
					)
					(hide yes)
				)
			)
			(property "ki_keywords" "power-flag"
				(at 0 0 0)
				(effects
					(font
						(size 1.27 1.27)
					)
					(hide yes)
				)
			)
			(symbol "VCC_0_1"
				(polyline
					(pts
						(xy -0.762 1.27) (xy 0 2.54)
					)
					(stroke
						(width 0)
						(type default)
					)
					(fill
						(type none)
					)
				)
				(polyline
					(pts
						(xy 0 0) (xy 0 2.54)
					)
					(stroke
						(width 0)
						(type default)
					)
					(fill
						(type none)
					)
				)
				(polyline
					(pts
						(xy 0 2.54) (xy 0.762 1.27)
					)
					(stroke
						(width 0)
						(type default)
					)
					(fill
						(type none)
					)
				)
			)
			(symbol "VCC_1_1"
				(pin power_in line
					(at 0 0 90)
					(length 0) hide
					(name "VCC"
						(effects
							(font
								(size 1.27 1.27)
							)
						)
					)
					(number "1"
						(effects
							(font
								(size 1.27 1.27)
							)
						)
					)
				)
			)
		)
		(symbol "pspice:C"
			(pin_names
				(offset 0.254)
			)
			(exclude_from_sim no)
			(in_bom yes)
			(on_board yes)
			(property "Reference" "C"
				(at 2.54 3.81 90)
				(effects
					(font
						(size 1.27 1.27)
					)
				)
			)
			(property "Value" "C"
				(at 2.54 -3.81 90)
				(effects
					(font
						(size 1.27 1.27)
					)
				)
			)
			(property "Footprint" ""
				(at 0 0 0)
				(effects
					(font
						(size 1.27 1.27)
					)
					(hide yes)
				)
			)
			(property "Datasheet" "~"
				(at 0 0 0)
				(effects
					(font
						(size 1.27 1.27)
					)
					(hide yes)
				)
			)
			(property "Description" "Capacitor symbol for simulation only"
				(at 0 0 0)
				(effects
					(font
						(size 1.27 1.27)
					)
					(hide yes)
				)
			)
			(property "ki_keywords" "simulation"
				(at 0 0 0)
				(effects
					(font
						(size 1.27 1.27)
					)
					(hide yes)
				)
			)
			(symbol "C_0_1"
				(polyline
					(pts
						(xy -3.81 -1.27) (xy 3.81 -1.27)
					)
					(stroke
						(width 0)
						(type default)
					)
					(fill
						(type none)
					)
				)
				(polyline
					(pts
						(xy -3.81 1.27) (xy 3.81 1.27)
					)
					(stroke
						(width 0)
						(type default)
					)
					(fill
						(type none)
					)
				)
			)
			(symbol "C_1_1"
				(pin passive line
					(at 0 6.35 270)
					(length 5.08)
					(name "~"
						(effects
							(font
								(size 1.016 1.016)
							)
						)
					)
					(number "1"
						(effects
							(font
								(size 1.016 1.016)
							)
						)
					)
				)
				(pin passive line
					(at 0 -6.35 90)
					(length 5.08)
					(name "~"
						(effects
							(font
								(size 1.016 1.016)
							)
						)
					)
					(number "2"
						(effects
							(font
								(size 1.016 1.016)
							)
						)
					)
				)
			)
		)
	)
	(junction
		(at 68.58 90.17)
		(diameter 0)
		(color 0 0 0 0)
		(uuid "15a5bba9-1df9-4a41-a025-5e057b0f3b89")
	)
	(junction
		(at 85.09 106.68)
		(diameter 0)
		(color 0 0 0 0)
		(uuid "1cc75ab2-2284-44af-913f-9b3ea6fcd56a")
	)
	(junction
		(at 53.34 106.68)
		(diameter 0)
		(color 0 0 0 0)
		(uuid "3e1d1266-b997-4760-be13-2b15100ccd08")
	)
	(junction
		(at 68.58 125.73)
		(diameter 0)
		(color 0 0 0 0)
		(uuid "a8a2a253-8cfd-4288-8349-07ec3f6337e0")
	)
	(no_connect
		(at 138.43 96.52)
		(uuid "65d6e59e-0b78-4ac4-a4b1-092d07aa9ede")
	)
	(no_connect
		(at 138.43 114.3)
		(uuid "806785a8-d3ab-403b-8e42-24a7ba1b62b5")
	)
	(no_connect
		(at 138.43 99.06)
		(uuid "8cf9230f-3a1e-4980-8fe5-9c418381492b")
	)
	(no_connect
		(at 234.95 99.06)
		(uuid "f2f3f867-0acc-4116-a730-bf353cba5ade")
	)
	(wire
		(pts
			(xy 68.58 125.73) (xy 69.85 125.73)
		)
		(stroke
			(width 0)
			(type default)
		)
		(uuid "00920bad-f74e-4820-b651-f2afd86ab373")
	)
	(wire
		(pts
			(xy 68.58 124.46) (xy 68.58 125.73)
		)
		(stroke
			(width 0)
			(type default)
		)
		(uuid "02178561-2f40-4ac4-80d7-549f1d72187f")
	)
	(wire
		(pts
			(xy 96.52 80.01) (xy 100.33 80.01)
		)
		(stroke
			(width 0)
			(type default)
		)
		(uuid "04d5f006-62b9-4cfe-bf08-41a1cc8cfc6f")
	)
	(wire
		(pts
			(xy 135.89 104.14) (xy 138.43 104.14)
		)
		(stroke
			(width 0)
			(type default)
		)
		(uuid "0a603843-8cbc-4156-a8e6-b37788e898b4")
	)
	(wire
		(pts
			(xy 203.2 67.31) (xy 204.47 67.31)
		)
		(stroke
			(width 0)
			(type default)
		)
		(uuid "0c959b3c-c70b-45fa-91f6-b0911e396876")
	)
	(wire
		(pts
			(xy 137.16 121.92) (xy 138.43 121.92)
		)
		(stroke
			(width 0)
			(type default)
		)
		(uuid "0cba5f7d-d93f-44a0-9325-5a870a30a73d")
	)
	(wire
		(pts
			(xy 135.89 106.68) (xy 138.43 106.68)
		)
		(stroke
			(width 0)
			(type default)
		)
		(uuid "15b6e79e-49bf-4ee0-8f91-b299f7ec695a")
	)
	(wire
		(pts
			(xy 152.4 60.96) (xy 152.4 62.23)
		)
		(stroke
			(width 0)
			(type default)
		)
		(uuid "1611fb38-b57d-4dfd-9574-cdc533337624")
	)
	(wire
		(pts
			(xy 85.09 106.68) (xy 85.09 107.95)
		)
		(stroke
			(width 0)
			(type default)
		)
		(uuid "24ba2fee-5e87-4944-84fa-7a39c2cc56c1")
	)
	(wire
		(pts
			(xy 53.34 105.41) (xy 53.34 106.68)
		)
		(stroke
			(width 0)
			(type default)
		)
		(uuid "3ae051df-4dc7-4d89-9da0-300e78ad95b7")
	)
	(wire
		(pts
			(xy 96.52 77.47) (xy 96.52 80.01)
		)
		(stroke
			(width 0)
			(type default)
		)
		(uuid "3bc2db56-6e56-40e9-beef-61c841f41750")
	)
	(wire
		(pts
			(xy 203.2 69.85) (xy 203.2 76.2)
		)
		(stroke
			(width 0)
			(type default)
		)
		(uuid "491a8d88-dbac-4601-855e-a9418ffcd759")
	)
	(wire
		(pts
			(xy 137.16 123.19) (xy 137.16 121.92)
		)
		(stroke
			(width 0)
			(type default)
		)
		(uuid "6d2ce49c-bbb3-40ef-9fa8-4627e00c6c87")
	)
	(wire
		(pts
			(xy 53.34 106.68) (xy 54.61 106.68)
		)
		(stroke
			(width 0)
			(type default)
		)
		(uuid "772380e5-2468-437f-83db-9046e7ea9442")
	)
	(wire
		(pts
			(xy 53.34 106.68) (xy 53.34 107.95)
		)
		(stroke
			(width 0)
			(type default)
		)
		(uuid "7cea12bf-a2c6-4d10-b4fb-5d6fedb4a969")
	)
	(wire
		(pts
			(xy 234.95 104.14) (xy 236.22 104.14)
		)
		(stroke
			(width 0)
			(type default)
		)
		(uuid "83c636b0-4bdf-4aa0-a458-adfb3d759f97")
	)
	(wire
		(pts
			(xy 68.58 90.17) (xy 68.58 91.44)
		)
		(stroke
			(width 0)
			(type default)
		)
		(uuid "8629d900-d619-49b3-a759-961400c82140")
	)
	(wire
		(pts
			(xy 68.58 125.73) (xy 68.58 127)
		)
		(stroke
			(width 0)
			(type default)
		)
		(uuid "874d3b97-c246-4a5d-88f7-551160878063")
	)
	(wire
		(pts
			(xy 135.89 111.76) (xy 138.43 111.76)
		)
		(stroke
			(width 0)
			(type default)
		)
		(uuid "af8e26b0-2a11-4125-b2a0-97401b149454")
	)
	(wire
		(pts
			(xy 85.09 106.68) (xy 86.36 106.68)
		)
		(stroke
			(width 0)
			(type default)
		)
		(uuid "b541d426-e1b4-466b-87f7-fc3ee759b0c3")
	)
	(wire
		(pts
			(xy 173.99 74.93) (xy 173.99 76.2)
		)
		(stroke
			(width 0)
			(type default)
		)
		(uuid "c295a60e-43b6-4764-a56c-5d08724e0c12")
	)
	(wire
		(pts
			(xy 152.4 74.93) (xy 152.4 76.2)
		)
		(stroke
			(width 0)
			(type default)
		)
		(uuid "d43ac4c9-3d16-4038-a50f-0224f496d7c0")
	)
	(wire
		(pts
			(xy 85.09 105.41) (xy 85.09 106.68)
		)
		(stroke
			(width 0)
			(type default)
		)
		(uuid "d4c6b84e-21bc-4651-93a9-06dec1b88bf2")
	)
	(wire
		(pts
			(xy 234.95 96.52) (xy 236.22 96.52)
		)
		(stroke
			(width 0)
			(type default)
		)
		(uuid "e5af80e9-9ac6-4cd3-a196-6bc538ca3e18")
	)
	(wire
		(pts
			(xy 203.2 60.96) (xy 203.2 67.31)
		)
		(stroke
			(width 0)
			(type default)
		)
		(uuid "f0e1dc85-0489-4911-bdcb-2cae6a7d4fe7")
	)
	(wire
		(pts
			(xy 135.89 101.6) (xy 138.43 101.6)
		)
		(stroke
			(width 0)
			(type default)
		)
		(uuid "f30d3f98-1ccf-4c56-bd41-442b23da5114")
	)
	(wire
		(pts
			(xy 203.2 69.85) (xy 204.47 69.85)
		)
		(stroke
			(width 0)
			(type default)
		)
		(uuid "f5088bf6-9dc5-4beb-adfd-db6ffb8f71f3")
	)
	(wire
		(pts
			(xy 173.99 60.96) (xy 173.99 62.23)
		)
		(stroke
			(width 0)
			(type default)
		)
		(uuid "f642ad9d-93eb-4b8d-9c61-cddf9fef3411")
	)
	(wire
		(pts
			(xy 234.95 109.22) (xy 245.11 109.22)
		)
		(stroke
			(width 0)
			(type default)
		)
		(uuid "f8548a76-2d22-4e0a-85b5-7ce014678bf4")
	)
	(wire
		(pts
			(xy 68.58 90.17) (xy 69.85 90.17)
		)
		(stroke
			(width 0)
			(type default)
		)
		(uuid "ff54f4b0-a675-47fc-bc27-6e0613f8d675")
	)
	(wire
		(pts
			(xy 68.58 88.9) (xy 68.58 90.17)
		)
		(stroke
			(width 0)
			(type default)
		)
		(uuid "ffadbca3-45ef-4885-abd4-94de6d6b7aba")
	)
	(global_label "TX-SWC"
		(shape input)
		(at 135.89 106.68 180)
		(fields_autoplaced yes)
		(effects
			(font
				(size 1.27 1.27)
			)
			(justify right)
		)
		(uuid "0ea13645-10c0-444f-9859-0adbd1317e85")
		(property "Intersheetrefs" "${INTERSHEET_REFS}"
			(at 125.7964 106.6006 0)
			(effects
				(font
					(size 1.27 1.27)
				)
				(justify right)
				(hide yes)
			)
		)
	)
	(global_label "RX-SWD"
		(shape input)
		(at 69.85 125.73 0)
		(fields_autoplaced yes)
		(effects
			(font
				(size 1.27 1.27)
			)
			(justify left)
		)
		(uuid "6efd1cce-bad5-4e15-9298-e0ccea9b59f7")
		(property "Intersheetrefs" "${INTERSHEET_REFS}"
			(at 80.246 125.6506 0)
			(effects
				(font
					(size 1.27 1.27)
				)
				(justify left)
				(hide yes)
			)
		)
	)
	(global_label "nRST"
		(shape input)
		(at 236.22 104.14 0)
		(fields_autoplaced yes)
		(effects
			(font
				(size 1.27 1.27)
			)
			(justify left)
		)
		(uuid "7413f25f-2cba-4b2f-94bd-9b7e0c55e8ca")
		(property "Intersheetrefs" "${INTERSHEET_REFS}"
			(at 243.2293 104.0606 0)
			(effects
				(font
					(size 1.27 1.27)
				)
				(justify left)
				(hide yes)
			)
		)
	)
	(global_label "TX-SWC"
		(shape input)
		(at 135.89 101.6 180)
		(fields_autoplaced yes)
		(effects
			(font
				(size 1.27 1.27)
			)
			(justify right)
		)
		(uuid "88117694-cc25-4e07-ae39-eda6a919949b")
		(property "Intersheetrefs" "${INTERSHEET_REFS}"
			(at 125.7964 101.5206 0)
			(effects
				(font
					(size 1.27 1.27)
				)
				(justify right)
				(hide yes)
			)
		)
	)
	(global_label "SCL"
		(shape input)
		(at 54.61 106.68 0)
		(fields_autoplaced yes)
		(effects
			(font
				(size 1.27 1.27)
			)
			(justify left)
		)
		(uuid "8ca795e2-2db3-4123-ae4d-4f4e1ea086e4")
		(property "Intersheetrefs" "${INTERSHEET_REFS}"
			(at 61.1028 106.68 0)
			(effects
				(font
					(size 1.27 1.27)
				)
				(justify left)
				(hide yes)
			)
		)
	)
	(global_label "SCL"
		(shape input)
		(at 135.89 111.76 180)
		(fields_autoplaced yes)
		(effects
			(font
				(size 1.27 1.27)
			)
			(justify right)
		)
		(uuid "987c8f55-afa9-4687-b596-1a443f82af35")
		(property "Intersheetrefs" "${INTERSHEET_REFS}"
			(at 129.3972 111.76 0)
			(effects
				(font
					(size 1.27 1.27)
				)
				(justify right)
				(hide yes)
			)
		)
	)
	(global_label "TX-SWC"
		(shape input)
		(at 86.36 106.68 0)
		(fields_autoplaced yes)
		(effects
			(font
				(size 1.27 1.27)
			)
			(justify left)
		)
		(uuid "9b5c70d9-c5f1-46b1-90ef-1818f2197ffb")
		(property "Intersheetrefs" "${INTERSHEET_REFS}"
			(at 96.4536 106.6006 0)
			(effects
				(font
					(size 1.27 1.27)
				)
				(justify left)
				(hide yes)
			)
		)
	)
	(global_label "SDA"
		(shape input)
		(at 69.85 90.17 0)
		(fields_autoplaced yes)
		(effects
			(font
				(size 1.27 1.27)
			)
			(justify left)
		)
		(uuid "d9b930e7-613c-491b-aa88-635f5333593b")
		(property "Intersheetrefs" "${INTERSHEET_REFS}"
			(at 76.4033 90.17 0)
			(effects
				(font
					(size 1.27 1.27)
				)
				(justify left)
				(hide yes)
			)
		)
	)
	(global_label "SDA"
		(shape input)
		(at 236.22 96.52 0)
		(fields_autoplaced yes)
		(effects
			(font
				(size 1.27 1.27)
			)
			(justify left)
		)
		(uuid "dab1f51a-f531-4acf-95df-65be8b62f1e0")
		(property "Intersheetrefs" "${INTERSHEET_REFS}"
			(at 242.7733 96.52 0)
			(effects
				(font
					(size 1.27 1.27)
				)
				(justify left)
				(hide yes)
			)
		)
	)
	(global_label "RX-SWD"
		(shape input)
		(at 135.89 104.14 180)
		(fields_autoplaced yes)
		(effects
			(font
				(size 1.27 1.27)
			)
			(justify right)
		)
		(uuid "eab1adeb-66b7-4f95-9c3f-f2c686b7a667")
		(property "Intersheetrefs" "${INTERSHEET_REFS}"
			(at 125.494 104.0606 0)
			(effects
				(font
					(size 1.27 1.27)
				)
				(justify right)
				(hide yes)
			)
		)
	)
	(global_label "nRST"
		(shape input)
		(at 100.33 80.01 0)
		(fields_autoplaced yes)
		(effects
			(font
				(size 1.27 1.27)
			)
			(justify left)
		)
		(uuid "f6aeab68-fbe6-4d1e-b740-8f400ca62e26")
		(property "Intersheetrefs" "${INTERSHEET_REFS}"
			(at 107.3393 79.9306 0)
			(effects
				(font
					(size 1.27 1.27)
				)
				(justify left)
				(hide yes)
			)
		)
	)
	(symbol
		(lib_id "power:+5V")
		(at 85.09 102.87 0)
		(unit 1)
		(exclude_from_sim no)
		(in_bom yes)
		(on_board yes)
		(dnp no)
		(uuid "0a604b50-0ee8-4f41-9d7a-59bfa1e431c3")
		(property "Reference" "#PWR01"
			(at 85.09 106.68 0)
			(effects
				(font
					(size 1.27 1.27)
				)
				(hide yes)
			)
		)
		(property "Value" "VCC"
			(at 83.058 98.806 0)
			(effects
				(font
					(size 1.27 1.27)
				)
				(justify left)
			)
		)
		(property "Footprint" ""
			(at 85.09 102.87 0)
			(effects
				(font
					(size 1.27 1.27)
				)
				(hide yes)
			)
		)
		(property "Datasheet" ""
			(at 85.09 102.87 0)
			(effects
				(font
					(size 1.27 1.27)
				)
				(hide yes)
			)
		)
		(property "Description" "Power symbol creates a global label with name \"+5V\""
			(at 85.09 102.87 0)
			(effects
				(font
					(size 1.27 1.27)
				)
				(hide yes)
			)
		)
		(pin "1"
			(uuid "ee4b29b5-2c06-4dfc-a387-733690b12121")
		)
		(instances
			(project "stm32"
				(path "/d9be11eb-f4b1-40ed-b837-98e9ed11b109"
					(reference "#PWR01")
					(unit 1)
				)
			)
		)
	)
	(symbol
		(lib_id "fab:STM32C011D6Y6TR")
		(at 138.43 96.52 0)
		(unit 1)
		(exclude_from_sim no)
		(in_bom yes)
		(on_board yes)
		(dnp no)
		(fields_autoplaced yes)
		(uuid "222e49c3-62d0-450b-9cbb-613780552bc4")
		(property "Reference" "U1"
			(at 186.69 85.09 0)
			(effects
				(font
					(size 1.524 1.524)
				)
			)
		)
		(property "Value" "STM32C011D6Y6TR"
			(at 186.69 88.9 0)
			(effects
				(font
					(size 1.524 1.524)
				)
			)
		)
		(property "Footprint" "CBA / Fab lib:STM32C011D6Y6TR"
			(at 186.69 90.424 0)
			(effects
				(font
					(size 1.524 1.524)
				)
				(hide yes)
			)
		)
		(property "Datasheet" ""
			(at 138.43 96.52 0)
			(effects
				(font
					(size 1.524 1.524)
				)
			)
		)
		(property "Description" ""
			(at 138.43 96.52 0)
			(effects
				(font
					(size 1.27 1.27)
				)
				(hide yes)
			)
		)
		(pin "A2"
			(uuid "b7d1d536-bbb3-49d0-acd5-36d75c4461b0")
		)
		(pin "A4"
			(uuid "c508abf7-569a-48d1-a820-15138f7827b3")
		)
		(pin "B1"
			(uuid "f8d5ba59-bace-4108-aff1-9820593788de")
		)
		(pin "B3"
			(uuid "7e10d227-0c3a-48f5-9cab-4909fd91c45b")
		)
		(pin "C2"
			(uuid "ddb195db-c681-4c38-b108-b9cb90f729f1")
		)
		(pin "C4"
			(uuid "d2fcf94f-d017-4318-83d2-9a23953f9d75")
		)
		(pin "D1"
			(uuid "59989294-e2a3-4ad6-8c15-2f3f79f21311")
		)
		(pin "D3"
			(uuid "3072a111-9a65-498d-aba6-cf31b62a3540")
		)
		(pin "E2"
			(uuid "da0d475b-0c73-4c7c-9e4d-11f0d6be24f0")
		)
		(pin "E4"
			(uuid "e1942fa5-6d4d-4c5b-b801-2fda53833580")
		)
		(pin "F1"
			(uuid "ca6dfc57-9898-4f93-8635-fd222be49505")
		)
		(pin "F3"
			(uuid "cacb5dc7-bfc8-4d20-b46b-ca90be563f6d")
		)
		(instances
			(project "stm32"
				(path "/d9be11eb-f4b1-40ed-b837-98e9ed11b109"
					(reference "U1")
					(unit 1)
				)
			)
		)
	)
	(symbol
		(lib_id "power:GND")
		(at 137.16 123.19 0)
		(unit 1)
		(exclude_from_sim no)
		(in_bom yes)
		(on_board yes)
		(dnp no)
		(fields_autoplaced yes)
		(uuid "312adca9-ae20-4bfb-ae24-dfdd28bd905e")
		(property "Reference" "#PWR09"
			(at 137.16 129.54 0)
			(effects
				(font
					(size 1.27 1.27)
				)
				(hide yes)
			)
		)
		(property "Value" "GND"
			(at 137.16 128.27 0)
			(effects
				(font
					(size 1.27 1.27)
				)
			)
		)
		(property "Footprint" ""
			(at 137.16 123.19 0)
			(effects
				(font
					(size 1.27 1.27)
				)
				(hide yes)
			)
		)
		(property "Datasheet" ""
			(at 137.16 123.19 0)
			(effects
				(font
					(size 1.27 1.27)
				)
				(hide yes)
			)
		)
		(property "Description" ""
			(at 137.16 123.19 0)
			(effects
				(font
					(size 1.27 1.27)
				)
				(hide yes)
			)
		)
		(pin "1"
			(uuid "78375f9f-74e5-4309-b564-dd29379c9289")
		)
		(instances
			(project "stm32"
				(path "/d9be11eb-f4b1-40ed-b837-98e9ed11b109"
					(reference "#PWR09")
					(unit 1)
				)
			)
		)
	)
	(symbol
		(lib_id "pspice:C")
		(at 152.4 68.58 0)
		(unit 1)
		(exclude_from_sim no)
		(in_bom yes)
		(on_board yes)
		(dnp no)
		(fields_autoplaced yes)
		(uuid "34619cce-74d5-440b-83e3-d29f5ca54a06")
		(property "Reference" "C1"
			(at 157.48 67.3099 0)
			(effects
				(font
					(size 1.27 1.27)
				)
				(justify left)
			)
		)
		(property "Value" "100 nF"
			(at 157.48 69.8499 0)
			(effects
				(font
					(size 1.27 1.27)
				)
				(justify left)
			)
		)
		(property "Footprint" "Capacitor_SMD:C_0201_0603Metric"
			(at 152.4 68.58 0)
			(effects
				(font
					(size 1.27 1.27)
				)
				(hide yes)
			)
		)
		(property "Datasheet" "~"
			(at 152.4 68.58 0)
			(effects
				(font
					(size 1.27 1.27)
				)
				(hide yes)
			)
		)
		(property "Description" ""
			(at 152.4 68.58 0)
			(effects
				(font
					(size 1.27 1.27)
				)
				(hide yes)
			)
		)
		(property "details" "16V, X7R, +/-10%"
			(at 152.4 68.58 0)
			(effects
				(font
					(size 1.27 1.27)
				)
				(hide yes)
			)
		)
		(pin "1"
			(uuid "e3dc7368-b44b-45d1-a460-ccade953a831")
		)
		(pin "2"
			(uuid "40cfe358-c86f-449e-bdf7-d17b0caba7e6")
		)
		(instances
			(project "stm32"
				(path "/d9be11eb-f4b1-40ed-b837-98e9ed11b109"
					(reference "C1")
					(unit 1)
				)
			)
		)
	)
	(symbol
		(lib_id "power:GND")
		(at 85.09 110.49 0)
		(unit 1)
		(exclude_from_sim no)
		(in_bom yes)
		(on_board yes)
		(dnp no)
		(fields_autoplaced yes)
		(uuid "44abd1dc-bacb-4c01-8b6b-65effa8b00b4")
		(property "Reference" "#PWR02"
			(at 85.09 116.84 0)
			(effects
				(font
					(size 1.27 1.27)
				)
				(hide yes)
			)
		)
		(property "Value" "GND"
			(at 85.09 115.57 0)
			(effects
				(font
					(size 1.27 1.27)
				)
			)
		)
		(property "Footprint" ""
			(at 85.09 110.49 0)
			(effects
				(font
					(size 1.27 1.27)
				)
				(hide yes)
			)
		)
		(property "Datasheet" ""
			(at 85.09 110.49 0)
			(effects
				(font
					(size 1.27 1.27)
				)
				(hide yes)
			)
		)
		(property "Description" "Power symbol creates a global label with name \"GND\" , ground"
			(at 85.09 110.49 0)
			(effects
				(font
					(size 1.27 1.27)
				)
				(hide yes)
			)
		)
		(pin "1"
			(uuid "6c55302a-59df-4af9-bc40-1ba4735990ea")
		)
		(instances
			(project "stm32"
				(path "/d9be11eb-f4b1-40ed-b837-98e9ed11b109"
					(reference "#PWR02")
					(unit 1)
				)
			)
		)
	)
	(symbol
		(lib_id "power:VCC")
		(at 203.2 60.96 0)
		(unit 1)
		(exclude_from_sim no)
		(in_bom yes)
		(on_board yes)
		(dnp no)
		(uuid "52c4e124-c485-4f32-ba4f-a3b293654d29")
		(property "Reference" "#PWR014"
			(at 203.2 64.77 0)
			(effects
				(font
					(size 1.27 1.27)
				)
				(hide yes)
			)
		)
		(property "Value" "VCC"
			(at 207.01 59.69 0)
			(effects
				(font
					(size 1.27 1.27)
				)
			)
		)
		(property "Footprint" ""
			(at 203.2 60.96 0)
			(effects
				(font
					(size 1.27 1.27)
				)
				(hide yes)
			)
		)
		(property "Datasheet" ""
			(at 203.2 60.96 0)
			(effects
				(font
					(size 1.27 1.27)
				)
				(hide yes)
			)
		)
		(property "Description" ""
			(at 203.2 60.96 0)
			(effects
				(font
					(size 1.27 1.27)
				)
				(hide yes)
			)
		)
		(pin "1"
			(uuid "8b4613e4-94cc-4f1e-ad62-fce7dadf426c")
		)
		(instances
			(project "stm32"
				(path "/d9be11eb-f4b1-40ed-b837-98e9ed11b109"
					(reference "#PWR014")
					(unit 1)
				)
			)
		)
	)
	(symbol
		(lib_id "Connector:Conn_01x04_Pin")
		(at 63.5 124.46 0)
		(unit 1)
		(exclude_from_sim no)
		(in_bom yes)
		(on_board yes)
		(dnp no)
		(fields_autoplaced yes)
		(uuid "698b6266-d48f-49ca-be67-2d326aa4dcf7")
		(property "Reference" "J4"
			(at 64.135 116.84 0)
			(effects
				(font
					(size 1.27 1.27)
				)
			)
		)
		(property "Value" "Conn_01x04_Pin"
			(at 64.135 119.38 0)
			(effects
				(font
					(size 1.27 1.27)
				)
				(hide yes)
			)
		)
		(property "Footprint" "dm_connector:socket_1x04_P1.27mm_Vertical"
			(at 63.5 124.46 0)
			(effects
				(font
					(size 1.27 1.27)
				)
				(hide yes)
			)
		)
		(property "Datasheet" "~"
			(at 63.5 124.46 0)
			(effects
				(font
					(size 1.27 1.27)
				)
				(hide yes)
			)
		)
		(property "Description" ""
			(at 63.5 124.46 0)
			(effects
				(font
					(size 1.27 1.27)
				)
				(hide yes)
			)
		)
		(pin "4"
			(uuid "0b9c3f50-8ee6-49b6-be20-1e97f22b74e8")
		)
		(pin "1"
			(uuid "e9fc14ff-39a5-4b54-8384-681fde870b58")
		)
		(pin "3"
			(uuid "9734a07d-d6d3-4051-abac-8835e702c618")
		)
		(pin "2"
			(uuid "ed5d128e-0048-4861-a8c7-7f055690f8b7")
		)
		(instances
			(project "stm32"
				(path "/d9be11eb-f4b1-40ed-b837-98e9ed11b109"
					(reference "J4")
					(unit 1)
				)
			)
		)
	)
	(symbol
		(lib_id "power:GND")
		(at 68.58 93.98 0)
		(unit 1)
		(exclude_from_sim no)
		(in_bom yes)
		(on_board yes)
		(dnp no)
		(fields_autoplaced yes)
		(uuid "6ca17f89-4913-4b57-93ea-7240ae9f3dee")
		(property "Reference" "#PWR04"
			(at 68.58 100.33 0)
			(effects
				(font
					(size 1.27 1.27)
				)
				(hide yes)
			)
		)
		(property "Value" "GND"
			(at 68.58 99.06 0)
			(effects
				(font
					(size 1.27 1.27)
				)
			)
		)
		(property "Footprint" ""
			(at 68.58 93.98 0)
			(effects
				(font
					(size 1.27 1.27)
				)
				(hide yes)
			)
		)
		(property "Datasheet" ""
			(at 68.58 93.98 0)
			(effects
				(font
					(size 1.27 1.27)
				)
				(hide yes)
			)
		)
		(property "Description" "Power symbol creates a global label with name \"GND\" , ground"
			(at 68.58 93.98 0)
			(effects
				(font
					(size 1.27 1.27)
				)
				(hide yes)
			)
		)
		(pin "1"
			(uuid "87d4aa61-5a8e-450c-85d3-abccc36952d1")
		)
		(instances
			(project "stm32"
				(path "/d9be11eb-f4b1-40ed-b837-98e9ed11b109"
					(reference "#PWR04")
					(unit 1)
				)
			)
		)
	)
	(symbol
		(lib_id "power:GND")
		(at 68.58 129.54 0)
		(unit 1)
		(exclude_from_sim no)
		(in_bom yes)
		(on_board yes)
		(dnp no)
		(fields_autoplaced yes)
		(uuid "6cdb57b7-2d89-4ba3-b8bd-873d1793699d")
		(property "Reference" "#PWR08"
			(at 68.58 135.89 0)
			(effects
				(font
					(size 1.27 1.27)
				)
				(hide yes)
			)
		)
		(property "Value" "GND"
			(at 68.58 134.62 0)
			(effects
				(font
					(size 1.27 1.27)
				)
			)
		)
		(property "Footprint" ""
			(at 68.58 129.54 0)
			(effects
				(font
					(size 1.27 1.27)
				)
				(hide yes)
			)
		)
		(property "Datasheet" ""
			(at 68.58 129.54 0)
			(effects
				(font
					(size 1.27 1.27)
				)
				(hide yes)
			)
		)
		(property "Description" "Power symbol creates a global label with name \"GND\" , ground"
			(at 68.58 129.54 0)
			(effects
				(font
					(size 1.27 1.27)
				)
				(hide yes)
			)
		)
		(pin "1"
			(uuid "8c1998e3-9f23-41a7-b6ad-dc9afa23333d")
		)
		(instances
			(project "stm32"
				(path "/d9be11eb-f4b1-40ed-b837-98e9ed11b109"
					(reference "#PWR08")
					(unit 1)
				)
			)
		)
	)
	(symbol
		(lib_id "power:+5V")
		(at 68.58 86.36 0)
		(unit 1)
		(exclude_from_sim no)
		(in_bom yes)
		(on_board yes)
		(dnp no)
		(uuid "6fc8fc3a-c585-4439-9799-21c2b65dff05")
		(property "Reference" "#PWR03"
			(at 68.58 90.17 0)
			(effects
				(font
					(size 1.27 1.27)
				)
				(hide yes)
			)
		)
		(property "Value" "VCC"
			(at 66.548 82.296 0)
			(effects
				(font
					(size 1.27 1.27)
				)
				(justify left)
			)
		)
		(property "Footprint" ""
			(at 68.58 86.36 0)
			(effects
				(font
					(size 1.27 1.27)
				)
				(hide yes)
			)
		)
		(property "Datasheet" ""
			(at 68.58 86.36 0)
			(effects
				(font
					(size 1.27 1.27)
				)
				(hide yes)
			)
		)
		(property "Description" "Power symbol creates a global label with name \"+5V\""
			(at 68.58 86.36 0)
			(effects
				(font
					(size 1.27 1.27)
				)
				(hide yes)
			)
		)
		(pin "1"
			(uuid "a1e63c4d-058c-4624-8a94-90ecf53aa8d0")
		)
		(instances
			(project "stm32"
				(path "/d9be11eb-f4b1-40ed-b837-98e9ed11b109"
					(reference "#PWR03")
					(unit 1)
				)
			)
		)
	)
	(symbol
		(lib_id "power:GND")
		(at 173.99 76.2 0)
		(unit 1)
		(exclude_from_sim no)
		(in_bom yes)
		(on_board yes)
		(dnp no)
		(fields_autoplaced yes)
		(uuid "73f89816-a413-4038-9842-12e7ca4a223f")
		(property "Reference" "#PWR013"
			(at 173.99 82.55 0)
			(effects
				(font
					(size 1.27 1.27)
				)
				(hide yes)
			)
		)
		(property "Value" "GND"
			(at 173.99 81.28 0)
			(effects
				(font
					(size 1.27 1.27)
				)
			)
		)
		(property "Footprint" ""
			(at 173.99 76.2 0)
			(effects
				(font
					(size 1.27 1.27)
				)
				(hide yes)
			)
		)
		(property "Datasheet" ""
			(at 173.99 76.2 0)
			(effects
				(font
					(size 1.27 1.27)
				)
				(hide yes)
			)
		)
		(property "Description" ""
			(at 173.99 76.2 0)
			(effects
				(font
					(size 1.27 1.27)
				)
				(hide yes)
			)
		)
		(pin "1"
			(uuid "19f7ea47-0477-4b11-83a9-7b0c10a58536")
		)
		(instances
			(project "stm32"
				(path "/d9be11eb-f4b1-40ed-b837-98e9ed11b109"
					(reference "#PWR013")
					(unit 1)
				)
			)
		)
	)
	(symbol
		(lib_id "fab:Power_PWR_FLAG")
		(at 204.47 69.85 270)
		(unit 1)
		(exclude_from_sim no)
		(in_bom yes)
		(on_board yes)
		(dnp no)
		(fields_autoplaced yes)
		(uuid "837ec90b-a75f-4046-abcb-99564687ff51")
		(property "Reference" "#FLG03"
			(at 206.375 69.85 0)
			(effects
				(font
					(size 1.27 1.27)
				)
				(hide yes)
			)
		)
		(property "Value" "Power_PWR_FLAG"
			(at 208.28 69.8499 90)
			(effects
				(font
					(size 1.27 1.27)
				)
				(justify left)
			)
		)
		(property "Footprint" ""
			(at 204.47 69.85 0)
			(effects
				(font
					(size 1.27 1.27)
				)
				(hide yes)
			)
		)
		(property "Datasheet" "~"
			(at 204.47 69.85 0)
			(effects
				(font
					(size 1.27 1.27)
				)
				(hide yes)
			)
		)
		(property "Description" ""
			(at 204.47 69.85 0)
			(effects
				(font
					(size 1.27 1.27)
				)
				(hide yes)
			)
		)
		(pin "1"
			(uuid "938be97d-4bb4-4d40-a70e-c4f29ac07f72")
		)
		(instances
			(project "stm32"
				(path "/d9be11eb-f4b1-40ed-b837-98e9ed11b109"
					(reference "#FLG03")
					(unit 1)
				)
			)
		)
	)
	(symbol
		(lib_id "Connector:Conn_01x04_Pin")
		(at 48.26 105.41 0)
		(unit 1)
		(exclude_from_sim no)
		(in_bom yes)
		(on_board yes)
		(dnp no)
		(fields_autoplaced yes)
		(uuid "99555722-293a-4ae3-9dd7-e82dd883481c")
		(property "Reference" "J3"
			(at 48.895 97.79 0)
			(effects
				(font
					(size 1.27 1.27)
				)
			)
		)
		(property "Value" "Conn_01x04_Pin"
			(at 48.895 100.33 0)
			(effects
				(font
					(size 1.27 1.27)
				)
				(hide yes)
			)
		)
		(property "Footprint" "dm_connector:socket_1x04_P1.27mm_Vertical"
			(at 48.26 105.41 0)
			(effects
				(font
					(size 1.27 1.27)
				)
				(hide yes)
			)
		)
		(property "Datasheet" "~"
			(at 48.26 105.41 0)
			(effects
				(font
					(size 1.27 1.27)
				)
				(hide yes)
			)
		)
		(property "Description" ""
			(at 48.26 105.41 0)
			(effects
				(font
					(size 1.27 1.27)
				)
				(hide yes)
			)
		)
		(pin "4"
			(uuid "cb5567d2-fdcb-43b0-b1bb-599d9a34d979")
		)
		(pin "1"
			(uuid "cab49f6a-b8a7-4e73-ae71-7c34a584eff1")
		)
		(pin "3"
			(uuid "8c3604e1-e7c6-49ea-8dea-138f1a2f71ba")
		)
		(pin "2"
			(uuid "7539f94b-cc9d-4250-a4b3-0383b8066d50")
		)
		(instances
			(project "stm32"
				(path "/d9be11eb-f4b1-40ed-b837-98e9ed11b109"
					(reference "J3")
					(unit 1)
				)
			)
		)
	)
	(symbol
		(lib_id "pspice:C")
		(at 173.99 68.58 0)
		(unit 1)
		(exclude_from_sim no)
		(in_bom yes)
		(on_board yes)
		(dnp no)
		(fields_autoplaced yes)
		(uuid "9a8580fe-d4fb-4449-a273-178f7fb705f7")
		(property "Reference" "C2"
			(at 179.07 67.3099 0)
			(effects
				(font
					(size 1.27 1.27)
				)
				(justify left)
			)
		)
		(property "Value" "2.2 uF"
			(at 179.07 69.8499 0)
			(effects
				(font
					(size 1.27 1.27)
				)
				(justify left)
			)
		)
		(property "Footprint" "Capacitor_SMD:C_0201_0603Metric"
			(at 173.99 68.58 0)
			(effects
				(font
					(size 1.27 1.27)
				)
				(hide yes)
			)
		)
		(property "Datasheet" "~"
			(at 173.99 68.58 0)
			(effects
				(font
					(size 1.27 1.27)
				)
				(hide yes)
			)
		)
		(property "Description" ""
			(at 173.99 68.58 0)
			(effects
				(font
					(size 1.27 1.27)
				)
				(hide yes)
			)
		)
		(property "detail" "16V, X5R, +/-10% (4.7uF also OK)"
			(at 173.99 68.58 0)
			(effects
				(font
					(size 1.27 1.27)
				)
				(hide yes)
			)
		)
		(pin "1"
			(uuid "ff0fd5a4-8082-489a-92b5-fcf293b12e39")
		)
		(pin "2"
			(uuid "7bd91889-6426-4bf3-b95b-54ddd7e22a09")
		)
		(instances
			(project "stm32"
				(path "/d9be11eb-f4b1-40ed-b837-98e9ed11b109"
					(reference "C2")
					(unit 1)
				)
			)
		)
	)
	(symbol
		(lib_id "Connector:Conn_01x04_Pin")
		(at 63.5 88.9 0)
		(unit 1)
		(exclude_from_sim no)
		(in_bom yes)
		(on_board yes)
		(dnp no)
		(fields_autoplaced yes)
		(uuid "af9ac5d9-457a-4871-a66d-4dd9b8611f1a")
		(property "Reference" "J2"
			(at 64.135 81.28 0)
			(effects
				(font
					(size 1.27 1.27)
				)
			)
		)
		(property "Value" "Conn_01x04_Pin"
			(at 64.135 83.82 0)
			(effects
				(font
					(size 1.27 1.27)
				)
				(hide yes)
			)
		)
		(property "Footprint" "dm_connector:socket_1x04_P1.27mm_Vertical"
			(at 63.5 88.9 0)
			(effects
				(font
					(size 1.27 1.27)
				)
				(hide yes)
			)
		)
		(property "Datasheet" "~"
			(at 63.5 88.9 0)
			(effects
				(font
					(size 1.27 1.27)
				)
				(hide yes)
			)
		)
		(property "Description" ""
			(at 63.5 88.9 0)
			(effects
				(font
					(size 1.27 1.27)
				)
				(hide yes)
			)
		)
		(pin "4"
			(uuid "d003ff4e-3445-498f-9ac9-de9a87a5b6b7")
		)
		(pin "1"
			(uuid "e919a58c-44e3-4bb0-b3f9-28d0122be114")
		)
		(pin "3"
			(uuid "888bca8b-bd51-4768-900a-fd7e37def980")
		)
		(pin "2"
			(uuid "9ecb8834-7fb7-47d6-beea-5e9d744a257b")
		)
		(instances
			(project "stm32"
				(path "/d9be11eb-f4b1-40ed-b837-98e9ed11b109"
					(reference "J2")
					(unit 1)
				)
			)
		)
	)
	(symbol
		(lib_id "Connector:TestPoint")
		(at 96.52 77.47 0)
		(unit 1)
		(exclude_from_sim no)
		(in_bom yes)
		(on_board yes)
		(dnp no)
		(fields_autoplaced yes)
		(uuid "bc3ed4ee-8577-4665-ac6b-4d3fe5463250")
		(property "Reference" "TP1"
			(at 99.06 72.8979 0)
			(effects
				(font
					(size 1.27 1.27)
				)
				(justify left)
			)
		)
		(property "Value" "TestPoint"
			(at 99.06 75.4379 0)
			(effects
				(font
					(size 1.27 1.27)
				)
				(justify left)
			)
		)
		(property "Footprint" "TestPoint:TestPoint_Pad_1.0x1.0mm"
			(at 101.6 77.47 0)
			(effects
				(font
					(size 1.27 1.27)
				)
				(hide yes)
			)
		)
		(property "Datasheet" "~"
			(at 101.6 77.47 0)
			(effects
				(font
					(size 1.27 1.27)
				)
				(hide yes)
			)
		)
		(property "Description" "test point"
			(at 96.52 77.47 0)
			(effects
				(font
					(size 1.27 1.27)
				)
				(hide yes)
			)
		)
		(pin "1"
			(uuid "6411fd10-0919-4a64-a688-84fcb9f76a67")
		)
		(instances
			(project "stm32"
				(path "/d9be11eb-f4b1-40ed-b837-98e9ed11b109"
					(reference "TP1")
					(unit 1)
				)
			)
		)
	)
	(symbol
		(lib_id "power:GND")
		(at 53.34 110.49 0)
		(unit 1)
		(exclude_from_sim no)
		(in_bom yes)
		(on_board yes)
		(dnp no)
		(fields_autoplaced yes)
		(uuid "be846204-2f5e-4ec7-9e72-41f3aa621df0")
		(property "Reference" "#PWR06"
			(at 53.34 116.84 0)
			(effects
				(font
					(size 1.27 1.27)
				)
				(hide yes)
			)
		)
		(property "Value" "GND"
			(at 53.34 115.57 0)
			(effects
				(font
					(size 1.27 1.27)
				)
			)
		)
		(property "Footprint" ""
			(at 53.34 110.49 0)
			(effects
				(font
					(size 1.27 1.27)
				)
				(hide yes)
			)
		)
		(property "Datasheet" ""
			(at 53.34 110.49 0)
			(effects
				(font
					(size 1.27 1.27)
				)
				(hide yes)
			)
		)
		(property "Description" "Power symbol creates a global label with name \"GND\" , ground"
			(at 53.34 110.49 0)
			(effects
				(font
					(size 1.27 1.27)
				)
				(hide yes)
			)
		)
		(pin "1"
			(uuid "b4cb1823-b087-4efd-9bcb-848c5e77576c")
		)
		(instances
			(project "stm32"
				(path "/d9be11eb-f4b1-40ed-b837-98e9ed11b109"
					(reference "#PWR06")
					(unit 1)
				)
			)
		)
	)
	(symbol
		(lib_id "Connector:Conn_01x04_Pin")
		(at 80.01 105.41 0)
		(unit 1)
		(exclude_from_sim no)
		(in_bom yes)
		(on_board yes)
		(dnp no)
		(fields_autoplaced yes)
		(uuid "befe528e-163a-49c6-b85f-babf5b431ffa")
		(property "Reference" "J1"
			(at 80.645 97.79 0)
			(effects
				(font
					(size 1.27 1.27)
				)
			)
		)
		(property "Value" "Conn_01x04_Pin"
			(at 80.645 100.33 0)
			(effects
				(font
					(size 1.27 1.27)
				)
				(hide yes)
			)
		)
		(property "Footprint" "dm_connector:socket_1x04_P1.27mm_Vertical"
			(at 80.01 105.41 0)
			(effects
				(font
					(size 1.27 1.27)
				)
				(hide yes)
			)
		)
		(property "Datasheet" "~"
			(at 80.01 105.41 0)
			(effects
				(font
					(size 1.27 1.27)
				)
				(hide yes)
			)
		)
		(property "Description" ""
			(at 80.01 105.41 0)
			(effects
				(font
					(size 1.27 1.27)
				)
				(hide yes)
			)
		)
		(pin "4"
			(uuid "bb164d50-6640-4413-b872-4360e7de548e")
		)
		(pin "1"
			(uuid "f805ff0b-aa92-4e90-bfbd-5fac829df56f")
		)
		(pin "3"
			(uuid "91bb04e3-bfb4-4b1c-8077-9212591fd29e")
		)
		(pin "2"
			(uuid "e5140494-be2d-49c5-8316-bcb6a872418a")
		)
		(instances
			(project "stm32"
				(path "/d9be11eb-f4b1-40ed-b837-98e9ed11b109"
					(reference "J1")
					(unit 1)
				)
			)
		)
	)
	(symbol
		(lib_id "power:+5V")
		(at 53.34 102.87 0)
		(unit 1)
		(exclude_from_sim no)
		(in_bom yes)
		(on_board yes)
		(dnp no)
		(uuid "c267e07d-90d8-493a-9457-95f500b8456f")
		(property "Reference" "#PWR05"
			(at 53.34 106.68 0)
			(effects
				(font
					(size 1.27 1.27)
				)
				(hide yes)
			)
		)
		(property "Value" "VCC"
			(at 51.308 98.806 0)
			(effects
				(font
					(size 1.27 1.27)
				)
				(justify left)
			)
		)
		(property "Footprint" ""
			(at 53.34 102.87 0)
			(effects
				(font
					(size 1.27 1.27)
				)
				(hide yes)
			)
		)
		(property "Datasheet" ""
			(at 53.34 102.87 0)
			(effects
				(font
					(size 1.27 1.27)
				)
				(hide yes)
			)
		)
		(property "Description" "Power symbol creates a global label with name \"+5V\""
			(at 53.34 102.87 0)
			(effects
				(font
					(size 1.27 1.27)
				)
				(hide yes)
			)
		)
		(pin "1"
			(uuid "bac774a5-3792-4da9-be4f-5ed9a906ac73")
		)
		(instances
			(project "stm32"
				(path "/d9be11eb-f4b1-40ed-b837-98e9ed11b109"
					(reference "#PWR05")
					(unit 1)
				)
			)
		)
	)
	(symbol
		(lib_id "power:VCC")
		(at 173.99 60.96 0)
		(unit 1)
		(exclude_from_sim no)
		(in_bom yes)
		(on_board yes)
		(dnp no)
		(uuid "cc2fb1ec-ba11-4fc4-9259-63e2ffe6a8be")
		(property "Reference" "#PWR012"
			(at 173.99 64.77 0)
			(effects
				(font
					(size 1.27 1.27)
				)
				(hide yes)
			)
		)
		(property "Value" "VCC"
			(at 177.8 59.69 0)
			(effects
				(font
					(size 1.27 1.27)
				)
			)
		)
		(property "Footprint" ""
			(at 173.99 60.96 0)
			(effects
				(font
					(size 1.27 1.27)
				)
				(hide yes)
			)
		)
		(property "Datasheet" ""
			(at 173.99 60.96 0)
			(effects
				(font
					(size 1.27 1.27)
				)
				(hide yes)
			)
		)
		(property "Description" ""
			(at 173.99 60.96 0)
			(effects
				(font
					(size 1.27 1.27)
				)
				(hide yes)
			)
		)
		(pin "1"
			(uuid "93a82e90-4462-46fe-a137-6d1f958e3eda")
		)
		(instances
			(project "stm32"
				(path "/d9be11eb-f4b1-40ed-b837-98e9ed11b109"
					(reference "#PWR012")
					(unit 1)
				)
			)
		)
	)
	(symbol
		(lib_id "power:VCC")
		(at 245.11 109.22 0)
		(unit 1)
		(exclude_from_sim no)
		(in_bom yes)
		(on_board yes)
		(dnp no)
		(uuid "d6b6b663-e07f-41d5-bab8-f44855aeede1")
		(property "Reference" "#PWR017"
			(at 245.11 113.03 0)
			(effects
				(font
					(size 1.27 1.27)
				)
				(hide yes)
			)
		)
		(property "Value" "VCC"
			(at 248.92 107.95 0)
			(effects
				(font
					(size 1.27 1.27)
				)
			)
		)
		(property "Footprint" ""
			(at 245.11 109.22 0)
			(effects
				(font
					(size 1.27 1.27)
				)
				(hide yes)
			)
		)
		(property "Datasheet" ""
			(at 245.11 109.22 0)
			(effects
				(font
					(size 1.27 1.27)
				)
				(hide yes)
			)
		)
		(property "Description" ""
			(at 245.11 109.22 0)
			(effects
				(font
					(size 1.27 1.27)
				)
				(hide yes)
			)
		)
		(pin "1"
			(uuid "560d2d50-f8d6-4c32-870a-01463879c6fe")
		)
		(instances
			(project "stm32"
				(path "/d9be11eb-f4b1-40ed-b837-98e9ed11b109"
					(reference "#PWR017")
					(unit 1)
				)
			)
		)
	)
	(symbol
		(lib_id "fab:Power_PWR_FLAG")
		(at 204.47 67.31 270)
		(unit 1)
		(exclude_from_sim no)
		(in_bom yes)
		(on_board yes)
		(dnp no)
		(fields_autoplaced yes)
		(uuid "d6c7c369-4115-42e8-8988-39c2f25ebcb1")
		(property "Reference" "#FLG01"
			(at 206.375 67.31 0)
			(effects
				(font
					(size 1.27 1.27)
				)
				(hide yes)
			)
		)
		(property "Value" "Power_PWR_FLAG"
			(at 208.28 67.3099 90)
			(effects
				(font
					(size 1.27 1.27)
				)
				(justify left)
			)
		)
		(property "Footprint" ""
			(at 204.47 67.31 0)
			(effects
				(font
					(size 1.27 1.27)
				)
				(hide yes)
			)
		)
		(property "Datasheet" "~"
			(at 204.47 67.31 0)
			(effects
				(font
					(size 1.27 1.27)
				)
				(hide yes)
			)
		)
		(property "Description" ""
			(at 204.47 67.31 0)
			(effects
				(font
					(size 1.27 1.27)
				)
				(hide yes)
			)
		)
		(pin "1"
			(uuid "2599f6e7-5885-491d-8aa8-8349fe0d270b")
		)
		(instances
			(project "stm32"
				(path "/d9be11eb-f4b1-40ed-b837-98e9ed11b109"
					(reference "#FLG01")
					(unit 1)
				)
			)
		)
	)
	(symbol
		(lib_id "power:VCC")
		(at 152.4 60.96 0)
		(unit 1)
		(exclude_from_sim no)
		(in_bom yes)
		(on_board yes)
		(dnp no)
		(uuid "dc085f03-52e1-4f47-966e-8fc4290562a7")
		(property "Reference" "#PWR010"
			(at 152.4 64.77 0)
			(effects
				(font
					(size 1.27 1.27)
				)
				(hide yes)
			)
		)
		(property "Value" "VCC"
			(at 156.21 59.69 0)
			(effects
				(font
					(size 1.27 1.27)
				)
			)
		)
		(property "Footprint" ""
			(at 152.4 60.96 0)
			(effects
				(font
					(size 1.27 1.27)
				)
				(hide yes)
			)
		)
		(property "Datasheet" ""
			(at 152.4 60.96 0)
			(effects
				(font
					(size 1.27 1.27)
				)
				(hide yes)
			)
		)
		(property "Description" ""
			(at 152.4 60.96 0)
			(effects
				(font
					(size 1.27 1.27)
				)
				(hide yes)
			)
		)
		(pin "1"
			(uuid "75a22b38-0754-4972-9951-53b54129b283")
		)
		(instances
			(project "stm32"
				(path "/d9be11eb-f4b1-40ed-b837-98e9ed11b109"
					(reference "#PWR010")
					(unit 1)
				)
			)
		)
	)
	(symbol
		(lib_id "power:GND")
		(at 152.4 76.2 0)
		(unit 1)
		(exclude_from_sim no)
		(in_bom yes)
		(on_board yes)
		(dnp no)
		(fields_autoplaced yes)
		(uuid "e5938466-6d18-46c3-8bef-2e28147f0beb")
		(property "Reference" "#PWR011"
			(at 152.4 82.55 0)
			(effects
				(font
					(size 1.27 1.27)
				)
				(hide yes)
			)
		)
		(property "Value" "GND"
			(at 152.4 81.28 0)
			(effects
				(font
					(size 1.27 1.27)
				)
			)
		)
		(property "Footprint" ""
			(at 152.4 76.2 0)
			(effects
				(font
					(size 1.27 1.27)
				)
				(hide yes)
			)
		)
		(property "Datasheet" ""
			(at 152.4 76.2 0)
			(effects
				(font
					(size 1.27 1.27)
				)
				(hide yes)
			)
		)
		(property "Description" ""
			(at 152.4 76.2 0)
			(effects
				(font
					(size 1.27 1.27)
				)
				(hide yes)
			)
		)
		(pin "1"
			(uuid "65eaaa38-8c3b-4249-8730-eadc3a7d80d6")
		)
		(instances
			(project "stm32"
				(path "/d9be11eb-f4b1-40ed-b837-98e9ed11b109"
					(reference "#PWR011")
					(unit 1)
				)
			)
		)
	)
	(symbol
		(lib_id "power:GND")
		(at 203.2 76.2 0)
		(unit 1)
		(exclude_from_sim no)
		(in_bom yes)
		(on_board yes)
		(dnp no)
		(fields_autoplaced yes)
		(uuid "e8b3acfc-c42d-4d2a-a102-646bff9960e8")
		(property "Reference" "#PWR015"
			(at 203.2 82.55 0)
			(effects
				(font
					(size 1.27 1.27)
				)
				(hide yes)
			)
		)
		(property "Value" "GND"
			(at 203.2 81.28 0)
			(effects
				(font
					(size 1.27 1.27)
				)
			)
		)
		(property "Footprint" ""
			(at 203.2 76.2 0)
			(effects
				(font
					(size 1.27 1.27)
				)
				(hide yes)
			)
		)
		(property "Datasheet" ""
			(at 203.2 76.2 0)
			(effects
				(font
					(size 1.27 1.27)
				)
				(hide yes)
			)
		)
		(property "Description" ""
			(at 203.2 76.2 0)
			(effects
				(font
					(size 1.27 1.27)
				)
				(hide yes)
			)
		)
		(pin "1"
			(uuid "fc64ab64-e727-448e-ac72-37227def5873")
		)
		(instances
			(project "stm32"
				(path "/d9be11eb-f4b1-40ed-b837-98e9ed11b109"
					(reference "#PWR015")
					(unit 1)
				)
			)
		)
	)
	(symbol
		(lib_id "power:+5V")
		(at 68.58 121.92 0)
		(unit 1)
		(exclude_from_sim no)
		(in_bom yes)
		(on_board yes)
		(dnp no)
		(uuid "ec79aedd-5951-497f-921c-566ef501a380")
		(property "Reference" "#PWR07"
			(at 68.58 125.73 0)
			(effects
				(font
					(size 1.27 1.27)
				)
				(hide yes)
			)
		)
		(property "Value" "VCC"
			(at 66.548 117.856 0)
			(effects
				(font
					(size 1.27 1.27)
				)
				(justify left)
			)
		)
		(property "Footprint" ""
			(at 68.58 121.92 0)
			(effects
				(font
					(size 1.27 1.27)
				)
				(hide yes)
			)
		)
		(property "Datasheet" ""
			(at 68.58 121.92 0)
			(effects
				(font
					(size 1.27 1.27)
				)
				(hide yes)
			)
		)
		(property "Description" "Power symbol creates a global label with name \"+5V\""
			(at 68.58 121.92 0)
			(effects
				(font
					(size 1.27 1.27)
				)
				(hide yes)
			)
		)
		(pin "1"
			(uuid "b19be8c1-82c9-4342-9ff8-016994f931bc")
		)
		(instances
			(project "stm32"
				(path "/d9be11eb-f4b1-40ed-b837-98e9ed11b109"
					(reference "#PWR07")
					(unit 1)
				)
			)
		)
	)
	(sheet_instances
		(path "/"
			(page "1")
		)
	)
)
