%TF.GenerationSoftware,KiCad,Pcbnew,8.0.2-8.0.2-0~ubuntu23.10.1*%
%TF.CreationDate,2024-05-19T16:12:26-04:00*%
%TF.ProjectId,stm32_laser,73746d33-325f-46c6-9173-65722e6b6963,rev?*%
%TF.SameCoordinates,Original*%
%TF.FileFunction,Copper,L1,Top*%
%TF.FilePolarity,Positive*%
%FSLAX46Y46*%
G04 Gerber Fmt 4.6, Leading zero omitted, Abs format (unit mm)*
G04 Created by KiCad (PCBNEW 8.0.2-8.0.2-0~ubuntu23.10.1) date 2024-05-19 16:12:26*
%MOMM*%
%LPD*%
G01*
G04 APERTURE LIST*
G04 Aperture macros list*
%AMRoundRect*
0 Rectangle with rounded corners*
0 $1 Rounding radius*
0 $2 $3 $4 $5 $6 $7 $8 $9 X,Y pos of 4 corners*
0 Add a 4 corners polygon primitive as box body*
4,1,4,$2,$3,$4,$5,$6,$7,$8,$9,$2,$3,0*
0 Add four circle primitives for the rounded corners*
1,1,$1+$1,$2,$3*
1,1,$1+$1,$4,$5*
1,1,$1+$1,$6,$7*
1,1,$1+$1,$8,$9*
0 Add four rect primitives between the rounded corners*
20,1,$1+$1,$2,$3,$4,$5,0*
20,1,$1+$1,$4,$5,$6,$7,0*
20,1,$1+$1,$6,$7,$8,$9,0*
20,1,$1+$1,$8,$9,$2,$3,0*%
G04 Aperture macros list end*
%TA.AperFunction,SMDPad,CuDef*%
%ADD10C,0.203200*%
%TD*%
%TA.AperFunction,SMDPad,CuDef*%
%ADD11RoundRect,0.100000X-0.162635X0.021213X0.021213X-0.162635X0.162635X-0.021213X-0.021213X0.162635X0*%
%TD*%
%TA.AperFunction,ComponentPad*%
%ADD12O,1.550000X1.000000*%
%TD*%
%TA.AperFunction,ComponentPad*%
%ADD13O,1.000000X1.550000*%
%TD*%
%TA.AperFunction,SMDPad,CuDef*%
%ADD14R,0.600000X0.600000*%
%TD*%
%TA.AperFunction,Conductor*%
%ADD15C,0.200000*%
%TD*%
%TA.AperFunction,Conductor*%
%ADD16C,0.150000*%
%TD*%
%TA.AperFunction,Conductor*%
%ADD17C,0.600000*%
%TD*%
%ADD18C,0.100000*%
%ADD19C,0.150000*%
%TA.AperFunction,Profile*%
%ADD20C,0.050000*%
%TD*%
G04 APERTURE END LIST*
D10*
%TO.P,U1,A2,PB6*%
%TO.N,SCL*%
X144890500Y-114658000D03*
%TO.P,U1,A4,PC15-OSCX_OUT*%
%TO.N,unconnected-(U1-PC15-OSCX_OUT-PadA4)*%
X144890500Y-114052000D03*
%TO.P,U1,B1,PA13*%
%TO.N,RX-SWD*%
X145065500Y-114961000D03*
%TO.P,U1,B3,PC14-OSCX_IN*%
%TO.N,SDA*%
X145065500Y-114355000D03*
%TO.P,U1,C2,PA14-BOOT0*%
%TO.N,TX-SWC*%
X145240500Y-114658000D03*
%TO.P,U1,C4,VDD/VDDA*%
%TO.N,VCC*%
X145240500Y-114052000D03*
%TO.P,U1,D1,PA11PA9/PA8*%
%TO.N,unconnected-(U1-PA11PA9{slash}PA8-PadD1)*%
X145415500Y-114961000D03*
%TO.P,U1,D3,PB7*%
%TO.N,unconnected-(U1-PB7-PadD3)*%
X145415500Y-114355000D03*
%TO.P,U1,E2,PA12PA10/PA7*%
%TO.N,TX-SWC*%
X145590500Y-114658000D03*
%TO.P,U1,E4,VSS/VSSA*%
%TO.N,GND*%
X145590500Y-114052000D03*
%TO.P,U1,F1,PA3/PA4/PA5/PA6*%
%TO.N,unconnected-(U1-PA3{slash}PA4{slash}PA5{slash}PA6-PadF1)*%
X145765500Y-114961000D03*
%TO.P,U1,F3,PF2-NRST/PA0/PA1/PA2*%
%TO.N,nRST*%
X145765500Y-114355000D03*
%TD*%
D11*
%TO.P,C1,1*%
%TO.N,VCC*%
X146427226Y-112938726D03*
%TO.P,C1,2*%
%TO.N,GND*%
X146879774Y-113391274D03*
%TD*%
D12*
%TO.P,J1,1,Pin_1*%
%TO.N,VCC*%
X149062500Y-115950000D03*
%TO.P,J1,2,Pin_2*%
%TO.N,TX-SWC*%
X149062500Y-114680000D03*
%TO.P,J1,3,Pin_3*%
X149062500Y-113410000D03*
%TO.P,J1,4,Pin_4*%
%TO.N,GND*%
X149062500Y-112140000D03*
%TD*%
D13*
%TO.P,J2,1,Pin_1*%
%TO.N,VCC*%
X147837500Y-110925000D03*
%TO.P,J2,2,Pin_2*%
%TO.N,SDA*%
X146567500Y-110925000D03*
%TO.P,J2,3,Pin_3*%
X145297500Y-110925000D03*
%TO.P,J2,4,Pin_4*%
%TO.N,GND*%
X144027500Y-110925000D03*
%TD*%
D11*
%TO.P,C2,1*%
%TO.N,VCC*%
X147051226Y-112333726D03*
%TO.P,C2,2*%
%TO.N,GND*%
X147503774Y-112786274D03*
%TD*%
D13*
%TO.P,J4,1,Pin_1*%
%TO.N,VCC*%
X147837500Y-117175000D03*
%TO.P,J4,2,Pin_2*%
%TO.N,RX-SWD*%
X146567500Y-117175000D03*
%TO.P,J4,3,Pin_3*%
X145297500Y-117175000D03*
%TO.P,J4,4,Pin_4*%
%TO.N,GND*%
X144027500Y-117175000D03*
%TD*%
D12*
%TO.P,J3,1,Pin_1*%
%TO.N,VCC*%
X142812500Y-115950000D03*
%TO.P,J3,2,Pin_2*%
%TO.N,SCL*%
X142812500Y-114680000D03*
%TO.P,J3,3,Pin_3*%
X142812500Y-113410000D03*
%TO.P,J3,4,Pin_4*%
%TO.N,GND*%
X142812500Y-112140000D03*
%TD*%
D14*
%TO.P,TP1,1,1*%
%TO.N,nRST*%
X147207500Y-115323000D03*
%TD*%
D15*
%TO.N,GND*%
X147503774Y-112786274D02*
X148150048Y-112140000D01*
X146320648Y-113950400D02*
X146879774Y-113391274D01*
D16*
X145590500Y-114052000D02*
X145692100Y-113950400D01*
D15*
X148150048Y-112140000D02*
X149062500Y-112140000D01*
D16*
X146879774Y-113391274D02*
X146898774Y-113391274D01*
X145692100Y-113950400D02*
X146320648Y-113950400D01*
D15*
X146898774Y-113391274D02*
X147503774Y-112786274D01*
D16*
%TO.N,VCC*%
X145240500Y-114052000D02*
X145240500Y-113617000D01*
D15*
X147051226Y-112331274D02*
X147837500Y-111545000D01*
D16*
X146427226Y-112938726D02*
X146446226Y-112938726D01*
D15*
X146446226Y-112938726D02*
X147051226Y-112333726D01*
D16*
X147837500Y-111545000D02*
X147837500Y-110925000D01*
D15*
X145240500Y-113617000D02*
X145918774Y-112938726D01*
X145918774Y-112938726D02*
X146427226Y-112938726D01*
D16*
X147051226Y-112333726D02*
X147051226Y-112331274D01*
%TO.N,TX-SWC*%
X145937500Y-114659000D02*
X146486500Y-115208000D01*
D17*
X149059500Y-114320000D02*
X149059500Y-113705000D01*
D15*
X146486500Y-115208000D02*
X146486500Y-115587000D01*
D16*
X145240500Y-114658000D02*
X145256617Y-114658000D01*
X145264500Y-114659000D02*
X145937500Y-114659000D01*
D15*
X146486500Y-115587000D02*
X146902500Y-116003000D01*
X147577500Y-116003000D02*
X148900500Y-114680000D01*
D16*
X148900500Y-114680000D02*
X149062500Y-114680000D01*
D15*
X146902500Y-116003000D02*
X147577500Y-116003000D01*
D16*
%TO.N,SDA*%
X145052500Y-114355000D02*
X144492500Y-114355000D01*
D17*
X146318500Y-110925000D02*
X145678500Y-110925000D01*
D15*
X144202500Y-114065000D02*
X143983500Y-113846000D01*
D16*
X144492500Y-114355000D02*
X144202500Y-114065000D01*
D15*
X145297500Y-111041000D02*
X145297500Y-110925000D01*
X143983500Y-113846000D02*
X143983500Y-112355000D01*
X143983500Y-112355000D02*
X145297500Y-111041000D01*
D17*
%TO.N,SCL*%
X142812500Y-114350000D02*
X142812500Y-114059000D01*
D16*
X143564500Y-114050000D02*
X143555500Y-114059000D01*
X142834500Y-114658000D02*
X142812500Y-114680000D01*
D15*
X144172500Y-114658000D02*
X143564500Y-114050000D01*
D16*
X144890500Y-114658000D02*
X144172500Y-114658000D01*
D17*
X142812500Y-114059000D02*
X142812500Y-113720000D01*
D15*
X143555500Y-114059000D02*
X142812500Y-114059000D01*
%TO.N,RX-SWD*%
X145921500Y-116535000D02*
X145921500Y-117175000D01*
X145065500Y-115679000D02*
X145921500Y-116535000D01*
D16*
X145065500Y-114961000D02*
X145065500Y-115679000D01*
D17*
X145921500Y-117175000D02*
X145601500Y-117175000D01*
X146216500Y-117175000D02*
X145921500Y-117175000D01*
D16*
X145065500Y-116943000D02*
X145297500Y-117175000D01*
D15*
%TO.N,nRST*%
X146239500Y-114355000D02*
X147207500Y-115323000D01*
D16*
X145765500Y-114355000D02*
X146239500Y-114355000D01*
%TD*%
D18*
X143143500Y-111002000D02*
G75*
G02*
X142635500Y-111002000I-254000J0D01*
G01*
X142635500Y-111002000D02*
G75*
G02*
X143143500Y-111002000I254000J0D01*
G01*
X150065871Y-114241068D02*
X150065871Y-114012496D01*
X149865871Y-114155353D02*
X150380157Y-114155353D01*
X150380157Y-114155353D02*
X150437300Y-114126782D01*
X150437300Y-114126782D02*
X150465871Y-114069639D01*
X150465871Y-114069639D02*
X150465871Y-114012496D01*
X150437300Y-113555354D02*
X150465871Y-113612496D01*
X150465871Y-113612496D02*
X150465871Y-113726782D01*
X150465871Y-113726782D02*
X150437300Y-113783925D01*
X150437300Y-113783925D02*
X150408728Y-113812496D01*
X150408728Y-113812496D02*
X150351585Y-113841068D01*
X150351585Y-113841068D02*
X150180157Y-113841068D01*
X150180157Y-113841068D02*
X150123014Y-113812496D01*
X150123014Y-113812496D02*
X150094442Y-113783925D01*
X150094442Y-113783925D02*
X150065871Y-113726782D01*
X150065871Y-113726782D02*
X150065871Y-113612496D01*
X150065871Y-113612496D02*
X150094442Y-113555354D01*
X141404700Y-113180074D02*
X141376128Y-113237217D01*
X141376128Y-113237217D02*
X141376128Y-113351503D01*
X141376128Y-113351503D02*
X141404700Y-113408646D01*
X141404700Y-113408646D02*
X141461842Y-113437217D01*
X141461842Y-113437217D02*
X141490414Y-113437217D01*
X141490414Y-113437217D02*
X141547557Y-113408646D01*
X141547557Y-113408646D02*
X141576128Y-113351503D01*
X141576128Y-113351503D02*
X141576128Y-113265789D01*
X141576128Y-113265789D02*
X141604700Y-113208646D01*
X141604700Y-113208646D02*
X141661842Y-113180074D01*
X141661842Y-113180074D02*
X141690414Y-113180074D01*
X141690414Y-113180074D02*
X141747557Y-113208646D01*
X141747557Y-113208646D02*
X141776128Y-113265789D01*
X141776128Y-113265789D02*
X141776128Y-113351503D01*
X141776128Y-113351503D02*
X141747557Y-113408646D01*
X141404700Y-113951503D02*
X141376128Y-113894360D01*
X141376128Y-113894360D02*
X141376128Y-113780074D01*
X141376128Y-113780074D02*
X141404700Y-113722931D01*
X141404700Y-113722931D02*
X141433271Y-113694360D01*
X141433271Y-113694360D02*
X141490414Y-113665788D01*
X141490414Y-113665788D02*
X141661842Y-113665788D01*
X141661842Y-113665788D02*
X141718985Y-113694360D01*
X141718985Y-113694360D02*
X141747557Y-113722931D01*
X141747557Y-113722931D02*
X141776128Y-113780074D01*
X141776128Y-113780074D02*
X141776128Y-113894360D01*
X141776128Y-113894360D02*
X141747557Y-113951503D01*
X141376128Y-114294360D02*
X141404700Y-114237217D01*
X141404700Y-114237217D02*
X141461842Y-114208646D01*
X141461842Y-114208646D02*
X141976128Y-114208646D01*
X148989695Y-111149078D02*
X149333147Y-110805627D01*
X149333147Y-110805627D02*
X149393756Y-110785424D01*
X149393756Y-110785424D02*
X149434163Y-110785424D01*
X149434163Y-110785424D02*
X149494772Y-110805627D01*
X149494772Y-110805627D02*
X149555381Y-110866236D01*
X149555381Y-110866236D02*
X149575584Y-110926845D01*
X149252335Y-110886439D02*
X149312944Y-110906642D01*
X149312944Y-110906642D02*
X149393756Y-110987454D01*
X149393756Y-110987454D02*
X149413959Y-111048063D01*
X149413959Y-111048063D02*
X149413959Y-111088469D01*
X149413959Y-111088469D02*
X149393756Y-111149078D01*
X149393756Y-111149078D02*
X149272538Y-111270297D01*
X149272538Y-111270297D02*
X149211929Y-111290500D01*
X149211929Y-111290500D02*
X149171523Y-111290500D01*
X149171523Y-111290500D02*
X149110914Y-111270297D01*
X149110914Y-111270297D02*
X149030102Y-111189485D01*
X149030102Y-111189485D02*
X149009898Y-111128875D01*
X148828071Y-110987454D02*
X149009899Y-110603596D01*
X149009899Y-110603596D02*
X148626041Y-110785424D01*
X147083146Y-114771371D02*
X147083146Y-114371371D01*
X147083146Y-114485657D02*
X147111717Y-114428514D01*
X147111717Y-114428514D02*
X147140289Y-114399942D01*
X147140289Y-114399942D02*
X147197431Y-114371371D01*
X147197431Y-114371371D02*
X147254574Y-114371371D01*
X147426003Y-114742800D02*
X147483146Y-114771371D01*
X147483146Y-114771371D02*
X147597432Y-114771371D01*
X147597432Y-114771371D02*
X147654575Y-114742800D01*
X147654575Y-114742800D02*
X147683146Y-114685657D01*
X147683146Y-114685657D02*
X147683146Y-114657085D01*
X147683146Y-114657085D02*
X147654575Y-114599942D01*
X147654575Y-114599942D02*
X147597432Y-114571371D01*
X147597432Y-114571371D02*
X147511718Y-114571371D01*
X147511718Y-114571371D02*
X147454575Y-114542800D01*
X147454575Y-114542800D02*
X147426003Y-114485657D01*
X147426003Y-114485657D02*
X147426003Y-114457085D01*
X147426003Y-114457085D02*
X147454575Y-114399942D01*
X147454575Y-114399942D02*
X147511718Y-114371371D01*
X147511718Y-114371371D02*
X147597432Y-114371371D01*
X147597432Y-114371371D02*
X147654575Y-114399942D01*
X146667425Y-109517200D02*
X146610282Y-109488628D01*
X146610282Y-109488628D02*
X146495996Y-109488628D01*
X146495996Y-109488628D02*
X146438853Y-109517200D01*
X146438853Y-109517200D02*
X146410282Y-109574342D01*
X146410282Y-109574342D02*
X146410282Y-109602914D01*
X146410282Y-109602914D02*
X146438853Y-109660057D01*
X146438853Y-109660057D02*
X146495996Y-109688628D01*
X146495996Y-109688628D02*
X146581711Y-109688628D01*
X146581711Y-109688628D02*
X146638853Y-109717200D01*
X146638853Y-109717200D02*
X146667425Y-109774342D01*
X146667425Y-109774342D02*
X146667425Y-109802914D01*
X146667425Y-109802914D02*
X146638853Y-109860057D01*
X146638853Y-109860057D02*
X146581711Y-109888628D01*
X146581711Y-109888628D02*
X146495996Y-109888628D01*
X146495996Y-109888628D02*
X146438853Y-109860057D01*
X145895997Y-109488628D02*
X145895997Y-110088628D01*
X145895997Y-109517200D02*
X145953139Y-109488628D01*
X145953139Y-109488628D02*
X146067425Y-109488628D01*
X146067425Y-109488628D02*
X146124568Y-109517200D01*
X146124568Y-109517200D02*
X146153139Y-109545771D01*
X146153139Y-109545771D02*
X146181711Y-109602914D01*
X146181711Y-109602914D02*
X146181711Y-109774342D01*
X146181711Y-109774342D02*
X146153139Y-109831485D01*
X146153139Y-109831485D02*
X146124568Y-109860057D01*
X146124568Y-109860057D02*
X146067425Y-109888628D01*
X146067425Y-109888628D02*
X145953139Y-109888628D01*
X145953139Y-109888628D02*
X145895997Y-109860057D01*
X145353140Y-109488628D02*
X145353140Y-109802914D01*
X145353140Y-109802914D02*
X145381711Y-109860057D01*
X145381711Y-109860057D02*
X145438854Y-109888628D01*
X145438854Y-109888628D02*
X145553140Y-109888628D01*
X145553140Y-109888628D02*
X145610282Y-109860057D01*
X145353140Y-109517200D02*
X145410282Y-109488628D01*
X145410282Y-109488628D02*
X145553140Y-109488628D01*
X145553140Y-109488628D02*
X145610282Y-109517200D01*
X145610282Y-109517200D02*
X145638854Y-109574342D01*
X145638854Y-109574342D02*
X145638854Y-109631485D01*
X145638854Y-109631485D02*
X145610282Y-109688628D01*
X145610282Y-109688628D02*
X145553140Y-109717200D01*
X145553140Y-109717200D02*
X145410282Y-109717200D01*
X145410282Y-109717200D02*
X145353140Y-109745771D01*
X145476146Y-118611371D02*
X145476146Y-118211371D01*
X145476146Y-118325657D02*
X145504717Y-118268514D01*
X145504717Y-118268514D02*
X145533289Y-118239942D01*
X145533289Y-118239942D02*
X145590431Y-118211371D01*
X145590431Y-118211371D02*
X145647574Y-118211371D01*
X146104718Y-118611371D02*
X146104718Y-118011371D01*
X146104718Y-118582800D02*
X146047575Y-118611371D01*
X146047575Y-118611371D02*
X145933289Y-118611371D01*
X145933289Y-118611371D02*
X145876146Y-118582800D01*
X145876146Y-118582800D02*
X145847575Y-118554228D01*
X145847575Y-118554228D02*
X145819003Y-118497085D01*
X145819003Y-118497085D02*
X145819003Y-118325657D01*
X145819003Y-118325657D02*
X145847575Y-118268514D01*
X145847575Y-118268514D02*
X145876146Y-118239942D01*
X145876146Y-118239942D02*
X145933289Y-118211371D01*
X145933289Y-118211371D02*
X146047575Y-118211371D01*
X146047575Y-118211371D02*
X146104718Y-118239942D01*
D19*
X144182819Y-115806499D02*
X144420914Y-115806499D01*
X144325676Y-116044594D02*
X144420914Y-115806499D01*
X144420914Y-115806499D02*
X144325676Y-115568404D01*
X144611390Y-115949356D02*
X144420914Y-115806499D01*
X144420914Y-115806499D02*
X144611390Y-115663642D01*
D18*
%TO.C,U1*%
X146039200Y-113795300D02*
X146039200Y-113642900D01*
X145747100Y-113642900D02*
X146039200Y-113642900D01*
X144616800Y-113642900D02*
X144616800Y-113998500D01*
X144616800Y-113642900D02*
X144896200Y-113642900D01*
X144616800Y-115014500D02*
X144616800Y-115370100D01*
X144616800Y-115370100D02*
X144896200Y-115370100D01*
X145785200Y-115370100D02*
X146039200Y-115370100D01*
X146039200Y-115370100D02*
X146039200Y-115039900D01*
%TD*%
D20*
X148437500Y-118800000D02*
X143437500Y-118800000D01*
X150687500Y-116550000D02*
X148437500Y-118800000D01*
X143437500Y-109300000D02*
X148437500Y-109300000D01*
X141187500Y-116550000D02*
X141187500Y-111550000D01*
X150687500Y-111550000D02*
X150687500Y-116550000D01*
X150687500Y-111550000D02*
X148437500Y-109300000D01*
X141187500Y-116550000D02*
X143437500Y-118800000D01*
X143437500Y-109300000D02*
X141187500Y-111550000D01*
M02*
